{
    "error_code": 0,
    "error_message": "",
    "todos": [
        {
            "id": 1,
            "title": "Leo",
            "detail": "Koike",
            "date": "2020-09-30T00:00:00.000Z"
        },
        {
            "id": 2,
            "title": "lion",
            "detail": "gaogao",
            "date": null
        },
        {
            "id": 3,
            "title": "tategami",
            "detail": null,
            "date": null
        }
    ]
}
